﻿#On actions related to religion

# Code on-action: character creates a faith
# Root is the creator
# scope:old_faith is the faith they used to have
on_faith_created = {
	effect = {
		scope:old_faith = {
			if = {
				limit = { has_doctrine_parameter = unreformed }
				set_variable = { name = has_been_reformed }
			}
		
			root = { play_music_cue = "mx_cue_faith_conversion" }
		}
		set_variable = {
			name = has_created_a_faith
		}
		# Set original faith this one was based on
		if = {
			limit = {
				exists = scope:old_faith.founder
				scope:old_faith.founder = { has_variable = foundational_faith }
			}
			set_variable = {
				name = foundational_faith
				value = scope:old_faith.founder.var:foundational_faith
			}
		}
		else = {
			set_variable = {
				name = foundational_faith
				value = scope:old_faith
			}
		}
		check_for_equal_doctrine_effect = yes
		# Set up diff-faith HoFs.
		faith = {
			# If we have a diff-faith HoF, we want to account for that.
			## Islamic use-case: we want same-Mohammad's Succession faiths to keep following their appropriate caliphs.
			# if = { # Anbennar
				# limit = {
					# # Are we in the correct religion?
					# religion = religion:islam_religion
					# # Faiths with no HoF or a spiritual head aren't relevant for these calculations.
					# has_doctrine = doctrine_temporal_head
				# }
				# # Grab a scope for tooltip loc, since they complain about root.
				# root = { save_scope_as = reformer }
				# # Sunni path.
				# if = {
					# limit = { has_doctrine = muhammad_succession_sunni_doctrine }
					# root = { trigger_event = head_of_faith.0001 }
				# }
				# # Shia path.
				# else_if = {
					# limit = { has_doctrine = muhammad_succession_shia_doctrine }
					# root = { trigger_event = head_of_faith.0011 }
				# }
				# # Muhakkima path.
				# else_if = {
					# limit = { has_doctrine = muhammad_succession_muhakkima_doctrine }
					# root = { trigger_event = head_of_faith.0021 }
				# }
				# # Zandaqa path.
				# else_if = {
					# limit = { has_doctrine = muhammad_succession_zandaqa_doctrine }
					# root = { trigger_event = head_of_faith.0031 }
				# }
			# }
			## Faiths with the Rite tenet get to keep their old HoF.
			# else_if = {
			if = {
				limit = {
					# Assuming they exist.
					exists = scope:old_faith.religious_head
					# & have the appropriate doctrine parameter.
					has_doctrine_parameter = maintains_head_of_faith_on_creation
				}
				set_religious_head_title = scope:old_faith.religious_head_title
				# Christian faiths also get to keep ecumenism.
				# if = { # Anbennar
					# limit = {
						# scope:old_faith = { has_doctrine = special_doctrine_ecumenical_christian }
					# }
					# add_doctrine = special_doctrine_ecumenical_christian
				# }
			}
			## Otherwise, everyone else should lose their HoF, so we don't need to do anything.
		}
		# Achievements.
		root = {
			add_achievement_flag_effect = { FLAG = achievement_its_not_a_cult_flag }
		}
		# if = { # Anbennar
			# limit = {
				# scope:old_faith = {
					# religion_tag = west_african_religion
					# has_doctrine_parameter = unreformed
				# }
			# }
			# add_achievement_global_variable_effect = {
				# VARIABLE = achievement_mother_of_us_all_siguic
				# VALUE = yes
			# }
		# }
		# if = { # Anbennar
			# limit = {
				# scope:old_faith = {
					# religion_tag = west_african_orisha_religion
					# has_doctrine_parameter = unreformed
				# }
			# }
			# add_achievement_global_variable_effect = {
				# VARIABLE = achievement_mother_of_us_all_orisha
				# VALUE = yes
			# }
		# }
		# if = { # Anbennar
			# limit = {
				# scope:old_faith = {
					# religion_tag = west_african_bori_religion
					# has_doctrine_parameter = unreformed
				# }
			# }
			# add_achievement_global_variable_effect = {
				# VARIABLE = achievement_mother_of_us_all_bori
				# VALUE = yes
			# }
		# }
		# if = { # Anbennar
			# limit = {
				# scope:old_faith = {
					# religion_tag = west_african_roog_religion
					# has_doctrine_parameter = unreformed
				# }
			# }
			# add_achievement_global_variable_effect = {
				# VARIABLE = achievement_mother_of_us_all_roog_sene
				# VALUE = yes
			# }
		# }
		# if = { # Anbennar
			# limit = {
				# scope:old_faith = {
					# religion_tag = akom_religion
					# has_doctrine_parameter = unreformed
				# }
			# }
			# add_achievement_global_variable_effect = {
				# VARIABLE = achievement_mother_of_us_all_akom
				# VALUE = yes
			# }
		# }
		# if = { # Anbennar
			# limit = {
				# scope:old_faith = {
					# religion_tag = kushitism_religion
					# has_doctrine_parameter = unreformed
				# }
			# }
			# add_achievement_global_variable_effect = {
				# VARIABLE = achievement_mother_of_us_all_kushitism
				# VALUE = yes
			# }
		# }
		# if = { # Anbennar
			# limit = {
				# scope:old_faith = {
					# religion_tag = waaqism_religion
					# has_doctrine_parameter = unreformed
				# }
			# }
			# add_achievement_global_variable_effect = {
				# VARIABLE = achievement_mother_of_us_all_waaqism
				# VALUE = yes
			# }
		# }
		#Anbennar - We don't have achievements (yet...)
	}

	events = {
		faith_conversion.0001 # Convert capital county
		faith_conversion.0003 # Convert close family
		faith_creation.0001 # Temporal rel head setup
		faith_creation.0002 # Spiritual rel head setup
		faith_creation.0003 # Faith flags
		faith_creation.1000 # Notification event
	}
}

# Code on-action: character converts faith. Only fired when using the convert window, or the script effect that uses the same logic
# Root is the converter
# scope:old_faith is the faith they used to have
on_faith_conversion = {
	events = {
		faith_conversion.0001	# Convert capital county
		faith_conversion.0003	# Convert close family
		faith_conversion.1002	# Player-only narrative-notification event
		faith_conversion.1101   # Notify vassals of conversion
	}
}

# Code on-action: character changes faith. Not called when a character gets a faith on birth, creation, and similar
# Root is the character
# scope:old_faith is the faith they used to have
on_character_faith_change = {
	effect = {
		check_for_equal_doctrine_effect = yes
		every_held_title = {
			update_dynamic_coa = yes
		}

		# Struggle Catalyst: heir changes culture while under age
		if = {
			limit = {
				catalyst_very_important_child_change_culture_or_faith_preliminary_trigger = yes
			}
			random_parent = {
				limit = {
					any_character_struggle = {
						involvement = involved
					}
				}
				every_character_struggle = {
					involvement = involved
					activate_struggle_catalyst = {
						catalyst = catalyst_very_important_child_change_culture_or_faith
						character = root
					}
				}
			}
		}

		# Local conversion
		if = {
			limit = {
				exists = root.capital_province
				root.capital_province.faith = root.faith
				any_character_struggle = {
					involvement = involved
					phase_has_catalyst = catalyst_convert_local_culture_faith
					is_faith_involved_in_struggle = root.faith
				}
			}
			every_character_struggle = {
				involvement = involved
				activate_struggle_catalyst = {
					catalyst = catalyst_convert_local_culture_faith
					character = root
				}
			}
		}
		else_if = { # Forced conversion
			limit = {
				any_character_struggle = {
					involvement = involved
					is_faith_involved_in_struggle = root.faith
					phase_has_catalyst = catalyst_forced_conversion
				}
			}
			every_character_struggle = {
				involvement = involved
				activate_struggle_catalyst = {
					catalyst = catalyst_forced_conversion
					character = root
				}
			}
		}


		# Achievements
		# if = {
			# limit = { is_ai = no }

			# if = { # FP2 - Basque In My Glory
				# limit = { faith = faith:basque_pagan }
				# add_achievement_global_variable_effect = {
					# VARIABLE = fp2_basque_in_my_glory_achievement_unlocked
					# VALUE = yes
				# }
			# }
		# }
	}
	events = {
		faith_conversion.0002 # Remove obsolete modifiers
		faith_conversion.0004 # Convert Theocracies
		faith_conversion.0005 # Update marriage opinions
		great_holy_war.0025 # Replace Recipient for ongoing GHW
		great_holy_war.0029 # Beneficiary converted, remove and replace.
		great_holy_war.0059 # Clear Crusader traits on conversion.
		great_holy_war.0084 # Replace fallback ghw recipient
		great_holy_war.0085 # Remove pledged vassals upon conversion of their liege.
		false_conversion.0001	# Flag possible false conversions.
		war_event.3100		# Handles invalidation of religious wars
	}
}

# Code on-action: once a month for each faith
# Root is the faith
on_faith_monthly = {
	on_actions = {
		faith_holy_order_land_acquisition_pulse
		delay = { days = { 5 10 }}
		faith_heresy_events_pulse
		delay = { days = { 15 20 }}
		faith_fervor_events_pulse
	}
	events = {
		great_holy_war.0010 #Great Holy Wars are unlocked for a Faith.
		great_holy_war.0001
		great_holy_war.0022 #Pope harasses players for not pledging support to Crusade yet.
		great_holy_war.0030 #Monthly cleanup for Beneficiaries becoming unfit for various reasons.
	}
}

faith_holy_order_land_acquisition_pulse = {
	trigger = {
		any_faith_holy_order = {
			always = yes
		}
	}

	random_events = {
		chance_to_happen = 17 # ~1 every six months
		chance_of_no_event = {
			value = 100
			every_faith_holy_order = {
				subtract = 5
			}
			every_ruler = {
				limit = {
					holy_order_1000_request_target_trigger = yes
				}
				subtract = 5
			}
			if = {
				limit = {
					NOT = {
						any_faith_holy_order = {
							num_leased_titles < holy_order_barony_number_soft_threshold
						}
					}
				}
				add = 80
			}
			min = 30
		}
		100 = 0
		500 = holy_order.1000
	}
}

faith_heresy_events_pulse = {
	trigger = {
		fervor <= 40
		NOR = {
			has_doctrine_parameter = unreformed
			has_variable = current_heresy
		}
	}

	random_events = {
		chance_to_happen = 25
		chance_of_no_event = {
			if = {
				limit = { fervor > 30 }
				value = 90
			}
			else_if = {
				limit = { fervor > 20 }
				value = 70
			}
			else_if = {
				limit = { fervor > 10 }
				value = 40
			}
		}
		100 = heresy.0001
		# 100 = heresy.0005 # Anbennar
	}
}

faith_fervor_events_pulse = {
	trigger = {
		NOR = {
			has_doctrine_parameter = unreformed
			has_variable = recent_fervor_event
		}
	}

	random_events = {
		chance_to_happen = 6 # ~53% chance of occuring within a given year. 90% chance within 3 years, 99.8% chance within 5.
		100 = fervor.1001
		100 = fervor.2001
	}
}

pagan_conversion_pulse = {
	trigger = { #Is the character ready to convert?
		is_ai = yes
		OR = {
			is_independent_ruler = yes
			AND = { # Steppe people convert a bit more often & freely
				exists = capital_province
				capital_province = { geographical_region = world_steppe }
				primary_title.tier >= tier_duchy
			}
		}
		has_government = tribal_government
		OR = {
			has_realm_law = tribal_authority_2
			has_realm_law = tribal_authority_3
		}
		faith = { has_doctrine_parameter = unreformed }
		prestige_level >= 1 #lower than the regular requirement to make sure some rulers can convert
		trigger_if = { # Lighten the dev requirements progressively
			limit = {
				#Anbennar - Removed check for steppe
				#OR = {
					current_date <= 950.1.1
					#AND = {
					#	exists = capital_province
					#	capital_province = { geographical_region = world_steppe }
					#	primary_title.tier >= tier_duchy
					#}
				#}
			}
			capital_province.county = {
				development_level >= 7 #lower than the regular requirement to make sure some rulers can convert
			}
		}
		trigger_else_if = {
			limit = {
				current_date <= 1000.1.1
			}
			capital_province.county = {
				development_level >= 6 #lower than the regular requirement to make sure some rulers can convert
			}
		}
		trigger_else = {
			capital_province.county = {
				development_level >= 5 #lower than the regular requirement to make sure some rulers can convert
			}
		}

		culture = {
			calc_true_if = {
				amount >= 7
				has_innovation = innovation_motte
				has_innovation = innovation_catapult
				has_innovation = innovation_barracks
				has_innovation = innovation_mustering_grounds
				has_innovation = innovation_bannus
				has_innovation = innovation_quilted_armor
				has_innovation = innovation_gavelkind
				has_innovation = innovation_crop_rotation
				has_innovation = innovation_city_planning
				has_innovation = innovation_casus_belli
				has_innovation = innovation_plenary_assemblies
				has_innovation = innovation_ledger
				has_innovation = innovation_development_01
				has_innovation = innovation_currency_01
			}
		}
	}

	events = {
		global_religion.0001 #Pagan reformed by neighbor, spouse, soulmate, friend, or geographic location
	}
}

# Code on-action: when a great holy war no longer has a valid target, and there was no one left in the target kingdom to replace them. The target scopes will still point to the last target at this point
# If a new target is not picked in script, the GHW will be invalidated
# Root is the great holy war
on_potential_great_holy_war_invalidation = {
	events = {
		great_holy_war.0004
	}
}

# Code on-action: when on_potential_great_holy_war_invalidation did not find a new target, and the GHW is about to be destroyed. no way out at this point
# Root is the great holy war
on_great_holy_war_invalidation = {
	events = {
		great_holy_war.0055 #Send notifications to players.
	}
}

# Code on-action: when the GHW's war launch countdown hits zero. If a war is not started at this point, the GHW will invalidate, bypassing on_potential_great_holy_war_invalidation but not on_great_holy_war_invalidation
# Root is the great holy war
on_great_holy_war_countdown_end = {
	trigger = { #Only launch the holy war if attacker strength is above one third of defender. 
		ghw_attackers_strength >= third_of_defenders_strength
	}
	events = {
		great_holy_war.0005
	}
}

# Code on-action: when a character in a GHW is replaced. This can only happen when the war has begun, and a participant dies; if they get replaced in the war by someone of the right faith, then this will get called. Can be used to validate their benficiary, for instance
# Root is character being replaced
# scope:great_holy_war is the GHW
# scope:replacement is the replacement character
on_great_holy_war_participant_replaced = {
	events = {
		great_holy_war.0027 #Refresh Beneficiary for AI.
	}
}
